[
  {
    "id": "b74b9919-85dd-4e73-9424-163aa2db57f0",
    "data": [
      {
        "text": "spawn $item",
        "userDefined": false
      }
    ],
    "isTemplate": false,
    "count": 0,
    "lang": "en",
    "updated": 0
  }
]