{
    "candidates": [
      {
        "first_simple": {
          "variants": [
            {
              "speech": "Suncoast Server Leaderboard.",
              "text": "Suncoast Server Leaderboard."
            }
          ]
        },
        "content": {
          "table": {
            "title": "Suncoast Server Leaderboard",
            "columns": [
              {
                "header": "User name"
              },
              {
                "header": "Kills"
              },
              {
                "header": "Deaths"
              },
              {
                "header": "Score"
              }
            ],
            "rows": [
              {
                "cells": [
                  {
                    "text": "user1"
                  },
                  {
                    "text": 0
                  },
                  {
                    "text": 0
                  },
                  {
                    "text": 0
                  }
                ]
              },
              {
                "cells": [
                  {
                    "text": "user2"
                  },
                  {
                    "text": 0
                  },
                  {
                    "text": 0
                  },
                  {
                    "text": 0
                  }
                ]
              },
              {
                "cells": [
                  {
                    "text": "user3"
                  },
                  {
                    "text": 0
                  },
                  {
                    "text": 0
                  },
                  {
                    "text": 0
                  }
                ]
              },
              {
                "cells": [
                  {
                    "text": "user4"
                  },
                  {
                    "text": 0
                  },
                  {
                    "text": 0
                  },
                  {
                    "text": 0
                  }
                ]
              },
              {
                "cells": [
                  {
                    "text": "user5"
                  },
                  {
                    "text": 0
                  },
                  {
                    "text": 0
                  },
                  {
                    "text": 0
                  }
                ]
              },
              {
                "cells": [
                  {
                    "text": "user6"
                  },
                  {
                    "text": 0
                  },
                  {
                    "text": 0
                  },
                  {
                    "text": 0
                  }
                ]
              },
              {
                "cells": [
                  {
                    "text": "user7"
                  },
                  {
                    "text": 0
                  },
                  {
                    "text": 0
                  },
                  {
                    "text": 0
                  }
                ]
              },
              {
                "cells": [
                  {
                    "text": "user8"
                  },
                  {
                    "text": 0
                  },
                  {
                    "text": 0
                  },
                  {
                    "text": 0
                  }
                ]
              }
            ]
          }
        }
      }
    ]
  }